-8 976
-8 24 -48 888
8 -40 -48 872
-8 -8 -8 -8 928
992
992
992
120 -32 -64 752
-800 184
40 -40 -40 -40 40 -80 -80 576
-24 80 -72 -32 752
992
-8 40 -8 912
-8 104 -8 848
-8 56 -8 -8 880
-8 -8 56 -8 880
992
